Feature selection step using a model's feature importance scores or coefficients — step_select_vip • recipeselectors
…
# define a base model to use for feature importances
base_model <- rand_forest(mode = "classification") %>%
    set_engine("ranger", importance = "permutation")

# create a preprocessing recipe
rec <- iris %>%
 recipe(Species ~ .) %>%
 step_select_vip(all_predictors(), model = base_model, top_p = 2,
                 outcome = "Species")

prepped <- prep(rec)

juice(prepped)
#> # A tibble: 150 x 3
#>    Petal.Length Petal.Width Species
#>           <dbl>       <dbl> <fct>  
#>  1          1.4         0.2 setosa 
#>  2          1.4         0.2 setosa 
#>  3          1.3         0.2 setosa 
#>  4          1.5         0.2 setosa 
#>  5          1.4         0.2 setosa 
#>  6          1.7         0.4 setosa 
#>  7          1.4         0.3 setosa 
#>  8          1.5         0.2 setosa 
#>  9          1.4         0.2 setosa 
#> 10          1.5         0.1 setosa 
#> # … with 140 more rows
…
